…
    by_page <- data %>% 
               group_by(total_pages_visited) %>% 
               summarise(conversion_rate = mean(converted))
    by_page

    ## # A tibble: 29 x 2
    ##    total_pages_visited conversion_rate
    ##                  <int>           <dbl>
    ##  1                   1    0.0000000000
    ##  2                   2    0.0002279566
    ##  3                   3    0.0002509754
    ##  4                   4    0.0007796131
    ##  5                   5    0.0015699019
    ##  6                   6    0.0034367668
    ##  7                   7    0.0067694142
    ##  8                   8    0.0152379865
    ##  9                   9    0.0330673686
    ## 10                  10    0.0610677567
    ## # ... with 19 more rows
…
